DMA/DMA.sim/sim_1/behav/simulate.log
Vivado Simulator 2017.2
Time resolution is 1 ps
mem_data_in= 0, cpu_data_in=  0, dma_to_cpu_enable=0, dma_to_cpu_valid=0, dma_to_mem_enable=1, dma_to_mem_valid=0, address_valid=x, address_enable=x, length=   x
mem_data_in= 0, cpu_data_in=  0, dma_to_cpu_enable=0, dma_to_cpu_valid=0, dma_to_mem_enable=1, dma_to_mem_valid=0, address_valid=1, address_enable=x, length=  18
mem_data_in= 0, cpu_data_in=  0, dma_to_cpu_enable=0, dma_to_cpu_valid=0, dma_to_mem_enable=1, dma_to_mem_valid=0, address_valid=1, address_enable=1, length= 198
mem_data_in= 0, cpu_data_in=  0, dma_to_cpu_enable=0, dma_to_cpu_valid=0, dma_to_mem_enable=1, dma_to_mem_valid=0, address_valid=0, address_enable=1, length= 206
mem_data_in= 0, cpu_data_in=  0, dma_to_cpu_enable=0, dma_to_cpu_valid=0, dma_to_mem_enable=1, dma_to_mem_valid=0, address_valid=1, address_enable=0, length= 266
mem_data_in= 0, cpu_data_in=  0, dma_to_cpu_enable=0, dma_to_cpu_valid=0, dma_to_mem_enable=1, dma_to_mem_valid=0, address_valid=0, address_enable=1, length=  83
mem_data_in= 0, cpu_data_in=  0, dma_to_cpu_enable=0, dma_to_cpu_valid=0, dma_to_mem_enable=1, dma_to_mem_valid=0, address_valid=1, address_enable=0, length= 266
mem_data_in= 0, cpu_data_in=  0, dma_to_cpu_enable=0, dma_to_cpu_valid=0, dma_to_mem_enable=1, dma_to_mem_valid=0, address_valid=1, address_enable=1, length= 137
mem_data_in= 0, cpu_data_in=  0, dma_to_cpu_enable=0, dma_to_cpu_valid=0, dma_to_mem_enable=1, dma_to_mem_valid=0, address_valid=0, address_enable=0, length= 113
mem_data_in= 0, cpu_data_in=  0, dma_to_cpu_enable=0, dma_to_cpu_valid=0, dma_to_mem_enable=1, dma_to_mem_valid=0, address_valid=0, address_enable=0, length= 473
mem_data_in= 0, cpu_data_in=  0, dma_to_cpu_enable=0, dma_to_cpu_valid=0, dma_to_mem_enable=1, dma_to_mem_valid=0, address_valid=0, address_enable=1, length=  92
mem_data_in= 0, cpu_data_in=  0, dma_to_cpu_enable=0, dma_to_cpu_valid=0, dma_to_mem_enable=1, dma_to_mem_valid=0, address_valid=1, address_enable=0, length= 268
mem_data_in= 0, cpu_data_in=  0, dma_to_cpu_enable=0, dma_to_cpu_valid=0, dma_to_mem_enable=1, dma_to_mem_valid=0, address_valid=0, address_enable=1, length= 313
mem_data_in= 0, cpu_data_in=  0, dma_to_cpu_enable=0, dma_to_cpu_valid=0, dma_to_mem_enable=1, dma_to_mem_valid=0, address_valid=1, address_enable=0, length= 298
mem_data_in= 0, cpu_data_in=  0, dma_to_cpu_enable=0, dma_to_cpu_valid=0, dma_to_mem_enable=1, dma_to_mem_valid=0, address_valid=0, address_enable=1, length= 163
mem_data_in= 0, cpu_data_in=  0, dma_to_cpu_enable=0, dma_to_cpu_valid=0, dma_to_mem_enable=1, dma_to_mem_valid=0, address_valid=1, address_enable=0, length= 346
mem_data_in= 0, cpu_data_in=  0, dma_to_cpu_enable=0, dma_to_cpu_valid=0, dma_to_mem_enable=1, dma_to_mem_valid=0, address_valid=1, address_enable=1, length= 324
mem_data_in= 0, cpu_data_in=  0, dma_to_cpu_enable=0, dma_to_cpu_valid=0, dma_to_mem_enable=1, dma_to_mem_valid=0, address_valid=0, address_enable=1, length= 195
mem_data_in= 0, cpu_data_in=  0, dma_to_cpu_enable=0, dma_to_cpu_valid=0, dma_to_mem_enable=1, dma_to_mem_valid=0, address_valid=0, address_enable=0, length= 184
mem_data_in= 0, cpu_data_in=  0, dma_to_cpu_enable=0, dma_to_cpu_valid=0, dma_to_mem_enable=1, dma_to_mem_valid=0, address_valid=1, address_enable=0, length= 109
mem_data_in= 0, cpu_data_in=  0, dma_to_cpu_enable=0, dma_to_cpu_valid=0, dma_to_mem_enable=1, dma_to_mem_valid=0, address_valid=0, address_enable=1, length= 361
mem_data_in= 0, cpu_data_in=  0, dma_to_cpu_enable=0, dma_to_cpu_valid=0, dma_to_mem_enable=1, dma_to_mem_valid=0, address_valid=1, address_enable=0, length= 284
mem_data_in= 0, cpu_data_in=  0, dma_to_cpu_enable=0, dma_to_cpu_valid=0, dma_to_mem_enable=1, dma_to_mem_valid=0, address_valid=0, address_enable=0, length= 112
mem_data_in= 0, cpu_data_in=  0, dma_to_cpu_enable=0, dma_to_cpu_valid=0, dma_to_mem_enable=1, dma_to_mem_valid=0, address_valid=1, address_enable=1, length= 311
mem_data_in= 0, cpu_data_in=  0, dma_to_cpu_enable=0, dma_to_cpu_valid=0, dma_to_mem_enable=1, dma_to_mem_valid=0, address_valid=1, address_enable=0, length= 376
mem_data_in= 0, cpu_data_in=  0, dma_to_cpu_enable=0, dma_to_cpu_valid=0, dma_to_mem_enable=1, dma_to_mem_valid=0, address_valid=0, address_enable=0, length= 161
mem_data_in= 0, cpu_data_in=  0, dma_to_cpu_enable=0, dma_to_cpu_valid=0, dma_to_mem_enable=1, dma_to_mem_valid=0, address_valid=1, address_enable=1, length= 152
mem_data_in= 0, cpu_data_in=  0, dma_to_cpu_enable=0, dma_to_cpu_valid=0, dma_to_mem_enable=1, dma_to_mem_valid=0, address_valid=0, address_enable=0, length= 161
mem_data_in= 0, cpu_data_in=  0, dma_to_cpu_enable=0, dma_to_cpu_valid=0, dma_to_mem_enable=1, dma_to_mem_valid=0, address_valid=0, address_enable=1, length=  56
mem_data_in= 0, cpu_data_in=  0, dma_to_cpu_enable=0, dma_to_cpu_valid=0, dma_to_mem_enable=1, dma_to_mem_valid=0, address_valid=1, address_enable=0, length= 442
mem_data_in= 0, cpu_data_in=  0, dma_to_cpu_enable=0, dma_to_cpu_valid=0, dma_to_mem_enable=1, dma_to_mem_valid=0, address_valid=1, address_enable=0, length= 242
mem_data_in= 0, cpu_data_in=  0, dma_to_cpu_enable=0, dma_to_cpu_valid=0, dma_to_mem_enable=1, dma_to_mem_valid=0, address_valid=0, address_enable=1, length= 398
mem_data_in= 0, cpu_data_in=  0, dma_to_cpu_enable=0, dma_to_cpu_valid=0, dma_to_mem_enable=1, dma_to_mem_valid=0, address_valid=0, address_enable=1, length= 363
mem_data_in= 0, cpu_data_in=  0, dma_to_cpu_enable=0, dma_to_cpu_valid=0, dma_to_mem_enable=1, dma_to_mem_valid=0, address_valid=0, address_enable=1, length= 194
mem_data_in= 0, cpu_data_in=  0, dma_to_cpu_enable=0, dma_to_cpu_valid=0, dma_to_mem_enable=1, dma_to_mem_valid=0, address_valid=1, address_enable=0, length=  59
mem_data_in= 0, cpu_data_in=  0, dma_to_cpu_enable=0, dma_to_cpu_valid=0, dma_to_mem_enable=1, dma_to_mem_valid=0, address_valid=0, address_enable=1, length= 216
mem_data_in= 0, cpu_data_in=  0, dma_to_cpu_enable=0, dma_to_cpu_valid=0, dma_to_mem_enable=1, dma_to_mem_valid=0, address_valid=1, address_enable=1, length= 456
mem_data_in= 0, cpu_data_in=  0, dma_to_cpu_enable=0, dma_to_cpu_valid=0, dma_to_mem_enable=1, dma_to_mem_valid=0, address_valid=0, address_enable=0, length=  18
mem_data_in= 0, cpu_data_in=  0, dma_to_cpu_enable=0, dma_to_cpu_valid=0, dma_to_mem_enable=1, dma_to_mem_valid=0, address_valid=1, address_enable=1, length=  39
mem_data_in= 0, cpu_data_in=  0, dma_to_cpu_enable=0, dma_to_cpu_valid=0, dma_to_mem_enable=1, dma_to_mem_valid=0, address_valid=1, address_enable=1, length= 337
mem_data_in= 0, cpu_data_in=  0, dma_to_cpu_enable=0, dma_to_cpu_valid=0, dma_to_mem_enable=1, dma_to_mem_valid=0, address_valid=1, address_enable=1, length= 254
mem_data_in= 0, cpu_data_in=  0, dma_to_cpu_enable=0, dma_to_cpu_valid=0, dma_to_mem_enable=1, dma_to_mem_valid=0, address_valid=0, address_enable=0, length= 502
mem_data_in= 0, cpu_data_in=  0, dma_to_cpu_enable=0, dma_to_cpu_valid=0, dma_to_mem_enable=1, dma_to_mem_valid=0, address_valid=0, address_enable=1, length= 354
mem_data_in= 0, cpu_data_in=  0, dma_to_cpu_enable=0, dma_to_cpu_valid=0, dma_to_mem_enable=1, dma_to_mem_valid=0, address_valid=1, address_enable=0, length= 449
mem_data_in= 0, cpu_data_in=  0, dma_to_cpu_enable=0, dma_to_cpu_valid=0, dma_to_mem_enable=1, dma_to_mem_valid=0, address_valid=0, address_enable=1, length= 438
mem_data_in= 0, cpu_data_in=  0, dma_to_cpu_enable=0, dma_to_cpu_valid=0, dma_to_mem_enable=1, dma_to_mem_valid=0, address_valid=0, address_enable=0, length= 180
mem_data_in= 0, cpu_data_in=  0, dma_to_cpu_enable=0, dma_to_cpu_valid=0, dma_to_mem_enable=1, dma_to_mem_valid=0, address_valid=0, address_enable=0, length= 399
mem_data_in= 0, cpu_data_in=  0, dma_to_cpu_enable=0, dma_to_cpu_valid=0, dma_to_mem_enable=1, dma_to_mem_valid=0, address_valid=0, address_enable=1, length= 237
mem_data_in= 0, cpu_data_in=  0, dma_to_cpu_enable=0, dma_to_cpu_valid=0, dma_to_mem_enable=1, dma_to_mem_valid=0, address_valid=0, address_enable=1, length= 400
mem_data_in= 0, cpu_data_in=  0, dma_to_cpu_enable=0, dma_to_cpu_valid=0, dma_to_mem_enable=1, dma_to_mem_valid=0, address_valid=0, address_enable=0, length= 139
mem_data_in= 0, cpu_data_in=  0, dma_to_cpu_enable=0, dma_to_cpu_valid=0, dma_to_mem_enable=1, dma_to_mem_valid=0, address_valid=1, address_enable=0, length= 331
mem_data_in= 0, cpu_data_in=  0, dma_to_cpu_enable=0, dma_to_cpu_valid=0, dma_to_mem_enable=1, dma_to_mem_valid=0, address_valid=0, address_enable=1, length= 396
mem_data_in= 0, cpu_data_in=  0, dma_to_cpu_enable=0, dma_to_cpu_valid=0, dma_to_mem_enable=1, dma_to_mem_valid=0, address_valid=1, address_enable=1, length= 291
mem_data_in= 0, cpu_data_in=  0, dma_to_cpu_enable=0, dma_to_cpu_valid=0, dma_to_mem_enable=1, dma_to_mem_valid=0, address_valid=0, address_enable=0, length= 432
mem_data_in= 0, cpu_data_in=  0, dma_to_cpu_enable=0, dma_to_cpu_valid=0, dma_to_mem_enable=1, dma_to_mem_valid=0, address_valid=0, address_enable=1, length=  42
mem_data_in= 0, cpu_data_in=  0, dma_to_cpu_enable=0, dma_to_cpu_valid=0, dma_to_mem_enable=1, dma_to_mem_valid=0, address_valid=1, address_enable=1, length=  82
mem_data_in= 0, cpu_data_in=  0, dma_to_cpu_enable=0, dma_to_cpu_valid=0, dma_to_mem_enable=1, dma_to_mem_valid=0, address_valid=1, address_enable=1, length=   0
mem_data_in= 0, cpu_data_in=  0, dma_to_cpu_enable=0, dma_to_cpu_valid=0, dma_to_mem_enable=1, dma_to_mem_valid=0, address_valid=1, address_enable=0, length=  81
mem_data_in= 0, cpu_data_in=  0, dma_to_cpu_enable=0, dma_to_cpu_valid=0, dma_to_mem_enable=1, dma_to_mem_valid=0, address_valid=1, address_enable=1, length= 183
mem_data_in= 0, cpu_data_in=  0, dma_to_cpu_enable=0, dma_to_cpu_valid=0, dma_to_mem_enable=1, dma_to_mem_valid=0, address_valid=0, address_enable=1, length= 489
mem_data_in= 0, cpu_data_in=  0, dma_to_cpu_enable=0, dma_to_cpu_valid=0, dma_to_mem_enable=1, dma_to_mem_valid=0, address_valid=0, address_enable=0, length= 175
mem_data_in= 0, cpu_data_in=  0, dma_to_cpu_enable=0, dma_to_cpu_valid=0, dma_to_mem_enable=1, dma_to_mem_valid=0, address_valid=0, address_enable=1, length= 149
mem_data_in= 0, cpu_data_in=  0, dma_to_cpu_enable=0, dma_to_cpu_valid=0, dma_to_mem_enable=1, dma_to_mem_valid=0, address_valid=0, address_enable=1, length= 119
mem_data_in= 0, cpu_data_in=  0, dma_to_cpu_enable=0, dma_to_cpu_valid=0, dma_to_mem_enable=1, dma_to_mem_valid=0, address_valid=0, address_enable=0, length= 241
mem_data_in= 0, cpu_data_in=  0, dma_to_cpu_enable=0, dma_to_cpu_valid=0, dma_to_mem_enable=1, dma_to_mem_valid=0, address_valid=1, address_enable=1, length= 175
mem_data_in= 0, cpu_data_in=  0, dma_to_cpu_enable=0, dma_to_cpu_valid=0, dma_to_mem_enable=1, dma_to_mem_valid=0, address_valid=1, address_enable=0, length= 153
mem_data_in= 0, cpu_data_in=  0, dma_to_cpu_enable=0, dma_to_cpu_valid=0, dma_to_mem_enable=1, dma_to_mem_valid=0, address_valid=0, address_enable=1, length= 485
mem_data_in= 0, cpu_data_in=  0, dma_to_cpu_enable=0, dma_to_cpu_valid=0, dma_to_mem_enable=1, dma_to_mem_valid=0, address_valid=1, address_enable=1, length=   6
mem_data_in= 0, cpu_data_in=  0, dma_to_cpu_enable=0, dma_to_cpu_valid=0, dma_to_mem_enable=1, dma_to_mem_valid=0, address_valid=0, address_enable=1, length= 120
mem_data_in= 0, cpu_data_in=  0, dma_to_cpu_enable=0, dma_to_cpu_valid=0, dma_to_mem_enable=1, dma_to_mem_valid=0, address_valid=0, address_enable=1, length= 115
mem_data_in= 0, cpu_data_in=  0, dma_to_cpu_enable=0, dma_to_cpu_valid=0, dma_to_mem_enable=1, dma_to_mem_valid=0, address_valid=1, address_enable=0, length= 117
mem_data_in= 0, cpu_data_in=  0, dma_to_cpu_enable=0, dma_to_cpu_valid=0, dma_to_mem_enable=1, dma_to_mem_valid=0, address_valid=1, address_enable=0, length= 440
mem_data_in= 0, cpu_data_in=  0, dma_to_cpu_enable=0, dma_to_cpu_valid=0, dma_to_mem_enable=1, dma_to_mem_valid=0, address_valid=0, address_enable=1, length= 379
mem_data_in= 0, cpu_data_in=  0, dma_to_cpu_enable=0, dma_to_cpu_valid=0, dma_to_mem_enable=1, dma_to_mem_valid=0, address_valid=1, address_enable=1, length=  48
mem_data_in= 0, cpu_data_in=  0, dma_to_cpu_enable=0, dma_to_cpu_valid=0, dma_to_mem_enable=1, dma_to_mem_valid=0, address_valid=1, address_enable=1, length= 148
mem_data_in= 0, cpu_data_in=  0, dma_to_cpu_enable=0, dma_to_cpu_valid=0, dma_to_mem_enable=1, dma_to_mem_valid=0, address_valid=0, address_enable=0, length= 147
mem_data_in= 0, cpu_data_in=  0, dma_to_cpu_enable=0, dma_to_cpu_valid=0, dma_to_mem_enable=1, dma_to_mem_valid=0, address_valid=1, address_enable=0, length=  30
mem_data_in= 0, cpu_data_in=  0, dma_to_cpu_enable=0, dma_to_cpu_valid=0, dma_to_mem_enable=1, dma_to_mem_valid=0, address_valid=1, address_enable=1, length= 472
mem_data_in= 0, cpu_data_in=  0, dma_to_cpu_enable=0, dma_to_cpu_valid=0, dma_to_mem_enable=1, dma_to_mem_valid=0, address_valid=0, address_enable=0, length= 421
mem_data_in= 0, cpu_data_in=  0, dma_to_cpu_enable=0, dma_to_cpu_valid=0, dma_to_mem_enable=1, dma_to_mem_valid=0, address_valid=0, address_enable=1, length= 280
mem_data_in= 0, cpu_data_in=  0, dma_to_cpu_enable=0, dma_to_cpu_valid=0, dma_to_mem_enable=1, dma_to_mem_valid=0, address_valid=0, address_enable=1, length= 451
mem_data_in= 0, cpu_data_in=  0, dma_to_cpu_enable=0, dma_to_cpu_valid=0, dma_to_mem_enable=1, dma_to_mem_valid=0, address_valid=1, address_enable=0, length= 360
mem_data_in= 0, cpu_data_in=  0, dma_to_cpu_enable=0, dma_to_cpu_valid=0, dma_to_mem_enable=1, dma_to_mem_valid=0, address_valid=0, address_enable=0, length=   4
mem_data_in= 0, cpu_data_in=  0, dma_to_cpu_enable=0, dma_to_cpu_valid=0, dma_to_mem_enable=1, dma_to_mem_valid=0, address_valid=0, address_enable=1, length= 448
mem_data_in= 0, cpu_data_in=  0, dma_to_cpu_enable=0, dma_to_cpu_valid=0, dma_to_mem_enable=1, dma_to_mem_valid=0, address_valid=0, address_enable=0, length= 193
mem_data_in= 0, cpu_data_in=  0, dma_to_cpu_enable=0, dma_to_cpu_valid=0, dma_to_mem_enable=1, dma_to_mem_valid=0, address_valid=1, address_enable=0, length= 214
mem_data_in= 0, cpu_data_in=  0, dma_to_cpu_enable=0, dma_to_cpu_valid=0, dma_to_mem_enable=1, dma_to_mem_valid=0, address_valid=0, address_enable=1, length= 261
mem_data_in= 0, cpu_data_in=  0, dma_to_cpu_enable=0, dma_to_cpu_valid=0, dma_to_mem_enable=1, dma_to_mem_valid=0, address_valid=1, address_enable=0, length= 254
mem_data_in= 0, cpu_data_in=  0, dma_to_cpu_enable=0, dma_to_cpu_valid=0, dma_to_mem_enable=1, dma_to_mem_valid=0, address_valid=0, address_enable=0, length= 104
mem_data_in= 0, cpu_data_in=  0, dma_to_cpu_enable=0, dma_to_cpu_valid=0, dma_to_mem_enable=1, dma_to_mem_valid=0, address_valid=1, address_enable=0, length=  15
mem_data_in= 0, cpu_data_in=  0, dma_to_cpu_enable=0, dma_to_cpu_valid=0, dma_to_mem_enable=1, dma_to_mem_valid=0, address_valid=1, address_enable=0, length= 244
mem_data_in= 0, cpu_data_in=  0, dma_to_cpu_enable=0, dma_to_cpu_valid=0, dma_to_mem_enable=1, dma_to_mem_valid=0, address_valid=1, address_enable=0, length= 316
mem_data_in= 0, cpu_data_in=  0, dma_to_cpu_enable=0, dma_to_cpu_valid=0, dma_to_mem_enable=1, dma_to_mem_valid=0, address_valid=0, address_enable=1, length= 256
mem_data_in= 0, cpu_data_in=  0, dma_to_cpu_enable=0, dma_to_cpu_valid=0, dma_to_mem_enable=1, dma_to_mem_valid=0, address_valid=0, address_enable=0, length= 250
mem_data_in= 0, cpu_data_in=  0, dma_to_cpu_enable=0, dma_to_cpu_valid=0, dma_to_mem_enable=1, dma_to_mem_valid=0, address_valid=0, address_enable=0, length= 277
mem_data_in= 0, cpu_data_in=  0, dma_to_cpu_enable=0, dma_to_cpu_valid=0, dma_to_mem_enable=1, dma_to_mem_valid=0, address_valid=1, address_enable=0, length= 220
mem_data_in= 0, cpu_data_in=  0, dma_to_cpu_enable=0, dma_to_cpu_valid=0, dma_to_mem_enable=1, dma_to_mem_valid=0, address_valid=1, address_enable=0, length= 457
mem_data_in= 0, cpu_data_in=  0, dma_to_cpu_enable=0, dma_to_cpu_valid=0, dma_to_mem_enable=1, dma_to_mem_valid=0, address_valid=0, address_enable=1, length= 373
mem_data_in= 0, cpu_data_in=  0, dma_to_cpu_enable=0, dma_to_cpu_valid=0, dma_to_mem_enable=1, dma_to_mem_valid=0, address_valid=0, address_enable=0, length= 420
mem_data_in= 0, cpu_data_in=  0, dma_to_cpu_enable=0, dma_to_cpu_valid=0, dma_to_mem_enable=1, dma_to_mem_valid=0, address_valid=1, address_enable=0, length=  55
$finish called at time : 10 us : File "E:/school/Maths/Êý×ÖµçÂ·/DMA/DMA.srcs/sim_1/new/DMA_test.v" Line 54
